%YAML 1.1
%TAG !u! tag:unity3d.com,2011:
--- !u!114 &4913337707607737585
MonoBehaviour:
  m_ObjectHideFlags: 0
  m_CorrespondingSourceObject: {fileID: 0}
  m_PrefabInstance: {fileID: 0}
  m_PrefabAsset: {fileID: 0}
  m_GameObject: {fileID: 7030755623517391998}
  m_Enabled: 1
  m_EditorHideFlags: 0
  m_Script: {fileID: 11500000, guid: 1ee676135c633d74aa277d85e73a3392, type: 3}
  m_Name: 
  m_EditorClassIdentifier: 
  UseCooldown: 0.5
  MaxUses: 5
  BuildIndicatorPrefab: {fileID: 7622021856581341833, guid: 3825489d2f6e6ba46a437046e0a17951, type: 3}
  buildDistance: 1
  Obstacles: {fileID: 0}
--- !u!1001 &8625500131248489406
PrefabInstance:
  m_ObjectHideFlags: 0
  serializedVersion: 2
  m_Modification:
    m_TransformParent: {fileID: 0}
    m_Modifications:
    - target: {fileID: 1594745229900206016, guid: ae05a18b12d607c4199debb530c0799c, type: 3}
      propertyPath: m_Name
      value: Shovel
      objectReference: {fileID: 0}
    - target: {fileID: 2326116234884109122, guid: ae05a18b12d607c4199debb530c0799c, type: 3}
      propertyPath: ItemMesh
      value: 
      objectReference: {fileID: 9186479975805512906}
    - target: {fileID: 2326116234884109122, guid: ae05a18b12d607c4199debb530c0799c, type: 3}
      propertyPath: HandleSize
      value: 0.05
      objectReference: {fileID: 0}
    - target: {fileID: 3332498324623038295, guid: ae05a18b12d607c4199debb530c0799c, type: 3}
      propertyPath: m_RootOrder
      value: 2
      objectReference: {fileID: 0}
    - target: {fileID: 3332498324623038295, guid: ae05a18b12d607c4199debb530c0799c, type: 3}
      propertyPath: m_LocalPosition.x
      value: 0
      objectReference: {fileID: 0}
    - target: {fileID: 3332498324623038295, guid: ae05a18b12d607c4199debb530c0799c, type: 3}
      propertyPath: m_LocalPosition.y
      value: 0.1
      objectReference: {fileID: 0}
    - target: {fileID: 3332498324623038295, guid: ae05a18b12d607c4199debb530c0799c, type: 3}
      propertyPath: m_LocalPosition.z
      value: 0
      objectReference: {fileID: 0}
    - target: {fileID: 3332498324623038295, guid: ae05a18b12d607c4199debb530c0799c, type: 3}
      propertyPath: m_LocalRotation.w
      value: 0
      objectReference: {fileID: 0}
    - target: {fileID: 3332498324623038295, guid: ae05a18b12d607c4199debb530c0799c, type: 3}
      propertyPath: m_LocalRotation.x
      value: 0
      objectReference: {fileID: 0}
    - target: {fileID: 3332498324623038295, guid: ae05a18b12d607c4199debb530c0799c, type: 3}
      propertyPath: m_LocalRotation.y
      value: -0.70710677
      objectReference: {fileID: 0}
    - target: {fileID: 3332498324623038295, guid: ae05a18b12d607c4199debb530c0799c, type: 3}
      propertyPath: m_LocalRotation.z
      value: -0.70710677
      objectReference: {fileID: 0}
    - target: {fileID: 3332498324623038295, guid: ae05a18b12d607c4199debb530c0799c, type: 3}
      propertyPath: m_LocalEulerAnglesHint.x
      value: -90
      objectReference: {fileID: 0}
    - target: {fileID: 3332498324623038295, guid: ae05a18b12d607c4199debb530c0799c, type: 3}
      propertyPath: m_LocalEulerAnglesHint.y
      value: -90
      objectReference: {fileID: 0}
    - target: {fileID: 3332498324623038295, guid: ae05a18b12d607c4199debb530c0799c, type: 3}
      propertyPath: m_LocalEulerAnglesHint.z
      value: -90
      objectReference: {fileID: 0}
    - target: {fileID: 3535926080280919328, guid: ae05a18b12d607c4199debb530c0799c, type: 3}
      propertyPath: m_Materials.Array.data[0]
      value: 
      objectReference: {fileID: 0}
    - target: {fileID: 5700809899031029247, guid: ae05a18b12d607c4199debb530c0799c, type: 3}
      propertyPath: Effect
      value: 
      objectReference: {fileID: 4913337707607737585}
    - target: {fileID: 5700809899031029247, guid: ae05a18b12d607c4199debb530c0799c, type: 3}
      propertyPath: serializationData.Prefab
      value: 
      objectReference: {fileID: 5700809899031029247, guid: ae05a18b12d607c4199debb530c0799c, type: 3}
    - target: {fileID: 5824838594946824327, guid: ae05a18b12d607c4199debb530c0799c, type: 3}
      propertyPath: m_LocalPosition.x
      value: 0
      objectReference: {fileID: 0}
    - target: {fileID: 5824838594946824327, guid: ae05a18b12d607c4199debb530c0799c, type: 3}
      propertyPath: m_LocalPosition.y
      value: 0
      objectReference: {fileID: 0}
    - target: {fileID: 5824838594946824327, guid: ae05a18b12d607c4199debb530c0799c, type: 3}
      propertyPath: m_LocalPosition.z
      value: 0.2
      objectReference: {fileID: 0}
    - target: {fileID: 5824838594946824327, guid: ae05a18b12d607c4199debb530c0799c, type: 3}
      propertyPath: m_LocalRotation.w
      value: 0.9961947
      objectReference: {fileID: 0}
    - target: {fileID: 5824838594946824327, guid: ae05a18b12d607c4199debb530c0799c, type: 3}
      propertyPath: m_LocalRotation.x
      value: 0
      objectReference: {fileID: 0}
    - target: {fileID: 5824838594946824327, guid: ae05a18b12d607c4199debb530c0799c, type: 3}
      propertyPath: m_LocalRotation.y
      value: 0
      objectReference: {fileID: 0}
    - target: {fileID: 5824838594946824327, guid: ae05a18b12d607c4199debb530c0799c, type: 3}
      propertyPath: m_LocalRotation.z
      value: 0.08715578
      objectReference: {fileID: 0}
    - target: {fileID: 5824838594946824327, guid: ae05a18b12d607c4199debb530c0799c, type: 3}
      propertyPath: m_LocalEulerAnglesHint.z
      value: 10
      objectReference: {fileID: 0}
    - target: {fileID: 5891068646735184691, guid: ae05a18b12d607c4199debb530c0799c, type: 3}
      propertyPath: m_RootOrder
      value: 0
      objectReference: {fileID: 0}
    - target: {fileID: 5891068646735184691, guid: ae05a18b12d607c4199debb530c0799c, type: 3}
      propertyPath: m_LocalScale.x
      value: 1
      objectReference: {fileID: 0}
    - target: {fileID: 5891068646735184691, guid: ae05a18b12d607c4199debb530c0799c, type: 3}
      propertyPath: m_LocalScale.y
      value: 1
      objectReference: {fileID: 0}
    - target: {fileID: 5891068646735184691, guid: ae05a18b12d607c4199debb530c0799c, type: 3}
      propertyPath: m_LocalScale.z
      value: 1
      objectReference: {fileID: 0}
    - target: {fileID: 5891068646735184691, guid: ae05a18b12d607c4199debb530c0799c, type: 3}
      propertyPath: m_LocalPosition.x
      value: 0
      objectReference: {fileID: 0}
    - target: {fileID: 5891068646735184691, guid: ae05a18b12d607c4199debb530c0799c, type: 3}
      propertyPath: m_LocalPosition.y
      value: 0
      objectReference: {fileID: 0}
    - target: {fileID: 5891068646735184691, guid: ae05a18b12d607c4199debb530c0799c, type: 3}
      propertyPath: m_LocalPosition.z
      value: 0
      objectReference: {fileID: 0}
    - target: {fileID: 5891068646735184691, guid: ae05a18b12d607c4199debb530c0799c, type: 3}
      propertyPath: m_LocalRotation.w
      value: 1
      objectReference: {fileID: 0}
    - target: {fileID: 5891068646735184691, guid: ae05a18b12d607c4199debb530c0799c, type: 3}
      propertyPath: m_LocalRotation.x
      value: -0
      objectReference: {fileID: 0}
    - target: {fileID: 5891068646735184691, guid: ae05a18b12d607c4199debb530c0799c, type: 3}
      propertyPath: m_LocalRotation.y
      value: -0
      objectReference: {fileID: 0}
    - target: {fileID: 5891068646735184691, guid: ae05a18b12d607c4199debb530c0799c, type: 3}
      propertyPath: m_LocalRotation.z
      value: -0
      objectReference: {fileID: 0}
    - target: {fileID: 5891068646735184691, guid: ae05a18b12d607c4199debb530c0799c, type: 3}
      propertyPath: m_LocalEulerAnglesHint.x
      value: 0
      objectReference: {fileID: 0}
    - target: {fileID: 5891068646735184691, guid: ae05a18b12d607c4199debb530c0799c, type: 3}
      propertyPath: m_LocalEulerAnglesHint.y
      value: 0
      objectReference: {fileID: 0}
    - target: {fileID: 5891068646735184691, guid: ae05a18b12d607c4199debb530c0799c, type: 3}
      propertyPath: m_LocalEulerAnglesHint.z
      value: 0
      objectReference: {fileID: 0}
    - target: {fileID: 7407519618433041007, guid: ae05a18b12d607c4199debb530c0799c, type: 3}
      propertyPath: m_LocalScale.x
      value: 0.9
      objectReference: {fileID: 0}
    - target: {fileID: 7407519618433041007, guid: ae05a18b12d607c4199debb530c0799c, type: 3}
      propertyPath: m_LocalScale.y
      value: 0.9
      objectReference: {fileID: 0}
    - target: {fileID: 7407519618433041007, guid: ae05a18b12d607c4199debb530c0799c, type: 3}
      propertyPath: m_LocalScale.z
      value: 0.9
      objectReference: {fileID: 0}
    - target: {fileID: 7407519618433041007, guid: ae05a18b12d607c4199debb530c0799c, type: 3}
      propertyPath: m_LocalPosition.y
      value: 0.534
      objectReference: {fileID: 0}
    - target: {fileID: 7407519618433041007, guid: ae05a18b12d607c4199debb530c0799c, type: 3}
      propertyPath: m_LocalPosition.z
      value: 0.032
      objectReference: {fileID: 0}
    - target: {fileID: 7407519618433041007, guid: ae05a18b12d607c4199debb530c0799c, type: 3}
      propertyPath: m_LocalRotation.w
      value: 0.96443605
      objectReference: {fileID: 0}
    - target: {fileID: 7407519618433041007, guid: ae05a18b12d607c4199debb530c0799c, type: 3}
      propertyPath: m_LocalRotation.x
      value: 0.2643164
      objectReference: {fileID: 0}
    - target: {fileID: 7407519618433041007, guid: ae05a18b12d607c4199debb530c0799c, type: 3}
      propertyPath: m_LocalRotation.y
      value: -0
      objectReference: {fileID: 0}
    - target: {fileID: 7407519618433041007, guid: ae05a18b12d607c4199debb530c0799c, type: 3}
      propertyPath: m_LocalRotation.z
      value: -0
      objectReference: {fileID: 0}
    - target: {fileID: 7407519618433041007, guid: ae05a18b12d607c4199debb530c0799c, type: 3}
      propertyPath: m_LocalEulerAnglesHint.x
      value: 30.653
      objectReference: {fileID: 0}
    m_RemovedComponents: []
  m_SourcePrefab: {fileID: 100100000, guid: ae05a18b12d607c4199debb530c0799c, type: 3}
--- !u!1 &7030755623517391998 stripped
GameObject:
  m_CorrespondingSourceObject: {fileID: 1594745229900206016, guid: ae05a18b12d607c4199debb530c0799c, type: 3}
  m_PrefabInstance: {fileID: 8625500131248489406}
  m_PrefabAsset: {fileID: 0}
--- !u!4 &1260767599866053073 stripped
Transform:
  m_CorrespondingSourceObject: {fileID: 7407519618433041007, guid: ae05a18b12d607c4199debb530c0799c, type: 3}
  m_PrefabInstance: {fileID: 8625500131248489406}
  m_PrefabAsset: {fileID: 0}
--- !u!1001 &8716250477028510497
PrefabInstance:
  m_ObjectHideFlags: 0
  serializedVersion: 2
  m_Modification:
    m_TransformParent: {fileID: 1260767599866053073}
    m_Modifications:
    - target: {fileID: -8679921383154817045, guid: 661349db10798b847a5517048273ef40, type: 3}
      propertyPath: m_RootOrder
      value: 0
      objectReference: {fileID: 0}
    - target: {fileID: -8679921383154817045, guid: 661349db10798b847a5517048273ef40, type: 3}
      propertyPath: m_LocalScale.x
      value: 1.6
      objectReference: {fileID: 0}
    - target: {fileID: -8679921383154817045, guid: 661349db10798b847a5517048273ef40, type: 3}
      propertyPath: m_LocalScale.y
      value: 1.6
      objectReference: {fileID: 0}
    - target: {fileID: -8679921383154817045, guid: 661349db10798b847a5517048273ef40, type: 3}
      propertyPath: m_LocalScale.z
      value: 1.6
      objectReference: {fileID: 0}
    - target: {fileID: -8679921383154817045, guid: 661349db10798b847a5517048273ef40, type: 3}
      propertyPath: m_LocalPosition.x
      value: 0
      objectReference: {fileID: 0}
    - target: {fileID: -8679921383154817045, guid: 661349db10798b847a5517048273ef40, type: 3}
      propertyPath: m_LocalPosition.y
      value: 0
      objectReference: {fileID: 0}
    - target: {fileID: -8679921383154817045, guid: 661349db10798b847a5517048273ef40, type: 3}
      propertyPath: m_LocalPosition.z
      value: 0
      objectReference: {fileID: 0}
    - target: {fileID: -8679921383154817045, guid: 661349db10798b847a5517048273ef40, type: 3}
      propertyPath: m_LocalRotation.w
      value: 0.7071068
      objectReference: {fileID: 0}
    - target: {fileID: -8679921383154817045, guid: 661349db10798b847a5517048273ef40, type: 3}
      propertyPath: m_LocalRotation.x
      value: -0.7071068
      objectReference: {fileID: 0}
    - target: {fileID: -8679921383154817045, guid: 661349db10798b847a5517048273ef40, type: 3}
      propertyPath: m_LocalRotation.y
      value: 0
      objectReference: {fileID: 0}
    - target: {fileID: -8679921383154817045, guid: 661349db10798b847a5517048273ef40, type: 3}
      propertyPath: m_LocalRotation.z
      value: 0
      objectReference: {fileID: 0}
    - target: {fileID: -8679921383154817045, guid: 661349db10798b847a5517048273ef40, type: 3}
      propertyPath: m_LocalEulerAnglesHint.x
      value: -90
      objectReference: {fileID: 0}
    - target: {fileID: -8679921383154817045, guid: 661349db10798b847a5517048273ef40, type: 3}
      propertyPath: m_LocalEulerAnglesHint.y
      value: 0
      objectReference: {fileID: 0}
    - target: {fileID: -8679921383154817045, guid: 661349db10798b847a5517048273ef40, type: 3}
      propertyPath: m_LocalEulerAnglesHint.z
      value: 0
      objectReference: {fileID: 0}
    - target: {fileID: 919132149155446097, guid: 661349db10798b847a5517048273ef40, type: 3}
      propertyPath: m_Name
      value: _hovel_Geo
      objectReference: {fileID: 0}
    m_RemovedComponents: []
  m_SourcePrefab: {fileID: 100100000, guid: 661349db10798b847a5517048273ef40, type: 3}
--- !u!4 &9186479975805512906 stripped
Transform:
  m_CorrespondingSourceObject: {fileID: -8679921383154817045, guid: 661349db10798b847a5517048273ef40, type: 3}
  m_PrefabInstance: {fileID: 8716250477028510497}
  m_PrefabAsset: {fileID: 0}
