%YAML 1.1
%TAG !u! tag:unity3d.com,2011:
--- !u!114 &11400000
MonoBehaviour:
  m_ObjectHideFlags: 0
  m_CorrespondingSourceObject: {fileID: 0}
  m_PrefabInstance: {fileID: 0}
  m_PrefabAsset: {fileID: 0}
  m_GameObject: {fileID: 0}
  m_Enabled: 1
  m_EditorHideFlags: 0
  m_Script: {fileID: 11500000, guid: 9e452dcb6d09c6b4092e3661d81c5bfd, type: 3}
  m_Name: Preset4
  m_EditorClassIdentifier: 
  serializationData:
    SerializedFormat: 2
    SerializedBytes: 
    ReferencedUnityObjects: []
    SerializedBytesString: 
    Prefab: {fileID: 0}
    PrefabModificationsReferencedUnityObjects: []
    PrefabModifications: []
    SerializationNodes:
    - Name: Tiles
      Entry: 7
      Data: 0|MapPreset+TileType[,], Assembly-CSharp
    - Name: 
      Entry: 12
      Data: 165
    - Name: ranks
      Entry: 1
      Data: 15|11
    - Name: 
      Entry: 3
      Data: 2
    - Name: 
      Entry: 3
      Data: 0
    - Name: 
      Entry: 3
      Data: 0
    - Name: 
      Entry: 3
      Data: 3
    - Name: 
      Entry: 3
      Data: 0
    - Name: 
      Entry: 3
      Data: 2
    - Name: 
      Entry: 3
      Data: 0
    - Name: 
      Entry: 3
      Data: 1
    - Name: 
      Entry: 3
      Data: 0
    - Name: 
      Entry: 3
      Data: 0
    - Name: 
      Entry: 3
      Data: 2
    - Name: 
      Entry: 3
      Data: 0
    - Name: 
      Entry: 3
      Data: 0
    - Name: 
      Entry: 3
      Data: 0
    - Name: 
      Entry: 3
      Data: 3
    - Name: 
      Entry: 3
      Data: 0
    - Name: 
      Entry: 3
      Data: 0
    - Name: 
      Entry: 3
      Data: 0
    - Name: 
      Entry: 3
      Data: 1
    - Name: 
      Entry: 3
      Data: 0
    - Name: 
      Entry: 3
      Data: 0
    - Name: 
      Entry: 3
      Data: 0
    - Name: 
      Entry: 3
      Data: 0
    - Name: 
      Entry: 3
      Data: 0
    - Name: 
      Entry: 3
      Data: 0
    - Name: 
      Entry: 3
      Data: 0
    - Name: 
      Entry: 3
      Data: 0
    - Name: 
      Entry: 3
      Data: 0
    - Name: 
      Entry: 3
      Data: 0
    - Name: 
      Entry: 3
      Data: 0
    - Name: 
      Entry: 3
      Data: 0
    - Name: 
      Entry: 3
      Data: 0
    - Name: 
      Entry: 3
      Data: 0
    - Name: 
      Entry: 3
      Data: 3
    - Name: 
      Entry: 3
      Data: 3
    - Name: 
      Entry: 3
      Data: 0
    - Name: 
      Entry: 3
      Data: 0
    - Name: 
      Entry: 3
      Data: 0
    - Name: 
      Entry: 3
      Data: 0
    - Name: 
      Entry: 3
      Data: 0
    - Name: 
      Entry: 3
      Data: 0
    - Name: 
      Entry: 3
      Data: 0
    - Name: 
      Entry: 3
      Data: 1
    - Name: 
      Entry: 3
      Data: 1
    - Name: 
      Entry: 3
      Data: 0
    - Name: 
      Entry: 3
      Data: 0
    - Name: 
      Entry: 3
      Data: 0
    - Name: 
      Entry: 3
      Data: 0
    - Name: 
      Entry: 3
      Data: 0
    - Name: 
      Entry: 3
      Data: 0
    - Name: 
      Entry: 3
      Data: 0
    - Name: 
      Entry: 3
      Data: 0
    - Name: 
      Entry: 3
      Data: 0
    - Name: 
      Entry: 3
      Data: 0
    - Name: 
      Entry: 3
      Data: 0
    - Name: 
      Entry: 3
      Data: 0
    - Name: 
      Entry: 3
      Data: 0
    - Name: 
      Entry: 3
      Data: 0
    - Name: 
      Entry: 3
      Data: 0
    - Name: 
      Entry: 3
      Data: 0
    - Name: 
      Entry: 3
      Data: 0
    - Name: 
      Entry: 3
      Data: 0
    - Name: 
      Entry: 3
      Data: 0
    - Name: 
      Entry: 3
      Data: 0
    - Name: 
      Entry: 3
      Data: 0
    - Name: 
      Entry: 3
      Data: 0
    - Name: 
      Entry: 3
      Data: 0
    - Name: 
      Entry: 3
      Data: 0
    - Name: 
      Entry: 3
      Data: 0
    - Name: 
      Entry: 3
      Data: 0
    - Name: 
      Entry: 3
      Data: 0
    - Name: 
      Entry: 3
      Data: 2
    - Name: 
      Entry: 3
      Data: 0
    - Name: 
      Entry: 3
      Data: 0
    - Name: 
      Entry: 3
      Data: 0
    - Name: 
      Entry: 3
      Data: 0
    - Name: 
      Entry: 3
      Data: 0
    - Name: 
      Entry: 3
      Data: 0
    - Name: 
      Entry: 3
      Data: 0
    - Name: 
      Entry: 3
      Data: 0
    - Name: 
      Entry: 3
      Data: 0
    - Name: 
      Entry: 3
      Data: 2
    - Name: 
      Entry: 3
      Data: 3
    - Name: 
      Entry: 3
      Data: 2
    - Name: 
      Entry: 3
      Data: 0
    - Name: 
      Entry: 3
      Data: 0
    - Name: 
      Entry: 3
      Data: 0
    - Name: 
      Entry: 3
      Data: 0
    - Name: 
      Entry: 3
      Data: 0
    - Name: 
      Entry: 3
      Data: 0
    - Name: 
      Entry: 3
      Data: 0
    - Name: 
      Entry: 3
      Data: 0
    - Name: 
      Entry: 3
      Data: 0
    - Name: 
      Entry: 3
      Data: 2
    - Name: 
      Entry: 3
      Data: 0
    - Name: 
      Entry: 3
      Data: 0
    - Name: 
      Entry: 3
      Data: 0
    - Name: 
      Entry: 3
      Data: 0
    - Name: 
      Entry: 3
      Data: 0
    - Name: 
      Entry: 3
      Data: 0
    - Name: 
      Entry: 3
      Data: 0
    - Name: 
      Entry: 3
      Data: 0
    - Name: 
      Entry: 3
      Data: 0
    - Name: 
      Entry: 3
      Data: 0
    - Name: 
      Entry: 3
      Data: 0
    - Name: 
      Entry: 3
      Data: 0
    - Name: 
      Entry: 3
      Data: 0
    - Name: 
      Entry: 3
      Data: 0
    - Name: 
      Entry: 3
      Data: 0
    - Name: 
      Entry: 3
      Data: 0
    - Name: 
      Entry: 3
      Data: 0
    - Name: 
      Entry: 3
      Data: 0
    - Name: 
      Entry: 3
      Data: 0
    - Name: 
      Entry: 3
      Data: 0
    - Name: 
      Entry: 3
      Data: 0
    - Name: 
      Entry: 3
      Data: 0
    - Name: 
      Entry: 3
      Data: 0
    - Name: 
      Entry: 3
      Data: 0
    - Name: 
      Entry: 3
      Data: 0
    - Name: 
      Entry: 3
      Data: 0
    - Name: 
      Entry: 3
      Data: 0
    - Name: 
      Entry: 3
      Data: 1
    - Name: 
      Entry: 3
      Data: 1
    - Name: 
      Entry: 3
      Data: 0
    - Name: 
      Entry: 3
      Data: 0
    - Name: 
      Entry: 3
      Data: 0
    - Name: 
      Entry: 3
      Data: 0
    - Name: 
      Entry: 3
      Data: 0
    - Name: 
      Entry: 3
      Data: 0
    - Name: 
      Entry: 3
      Data: 0
    - Name: 
      Entry: 3
      Data: 3
    - Name: 
      Entry: 3
      Data: 3
    - Name: 
      Entry: 3
      Data: 0
    - Name: 
      Entry: 3
      Data: 0
    - Name: 
      Entry: 3
      Data: 0
    - Name: 
      Entry: 3
      Data: 0
    - Name: 
      Entry: 3
      Data: 0
    - Name: 
      Entry: 3
      Data: 0
    - Name: 
      Entry: 3
      Data: 0
    - Name: 
      Entry: 3
      Data: 0
    - Name: 
      Entry: 3
      Data: 0
    - Name: 
      Entry: 3
      Data: 0
    - Name: 
      Entry: 3
      Data: 0
    - Name: 
      Entry: 3
      Data: 0
    - Name: 
      Entry: 3
      Data: 0
    - Name: 
      Entry: 3
      Data: 0
    - Name: 
      Entry: 3
      Data: 1
    - Name: 
      Entry: 3
      Data: 0
    - Name: 
      Entry: 3
      Data: 0
    - Name: 
      Entry: 3
      Data: 0
    - Name: 
      Entry: 3
      Data: 3
    - Name: 
      Entry: 3
      Data: 0
    - Name: 
      Entry: 3
      Data: 0
    - Name: 
      Entry: 3
      Data: 0
    - Name: 
      Entry: 3
      Data: 2
    - Name: 
      Entry: 3
      Data: 0
    - Name: 
      Entry: 3
      Data: 0
    - Name: 
      Entry: 3
      Data: 1
    - Name: 
      Entry: 3
      Data: 0
    - Name: 
      Entry: 3
      Data: 2
    - Name: 
      Entry: 3
      Data: 0
    - Name: 
      Entry: 3
      Data: 3
    - Name: 
      Entry: 3
      Data: 0
    - Name: 
      Entry: 3
      Data: 0
    - Name: 
      Entry: 3
      Data: 2
    - Name: 
      Entry: 13
      Data: 
    - Name: 
      Entry: 8
      Data: 
